…
    ## Warning: `cols` is now required when using unnest().
    ## Please use `cols = c(estimate_dfs)`

``` r
sim_results %>% 
  mutate(
    pvalue = p.value)
```

    ## # A tibble: 35,000 x 10
    ##       mu estimate statistic p.value parameter conf.low conf.high method
    ##    <int>    <dbl>     <dbl>   <dbl>     <dbl>    <dbl>     <dbl> <chr> 
    ##  1     0   0.935     0.939   0.356         29   -1.10      2.97  One S…
    ##  2     0  -0.0465   -0.0554  0.956         29   -1.76      1.67  One S…
    ##  3     0  -0.450    -0.473   0.640         29   -2.39      1.49  One S…
    ##  4     0  -1.58     -1.82    0.0786        29   -3.36      0.192 One S…
    ##  5     0   0.271     0.220   0.828         29   -2.25      2.80  One S…
    ##  6     0   0.263     0.308   0.760         29   -1.48      2.01  One S…
    ##  7     0   0.428     0.452   0.655         29   -1.51      2.37  One S…
    ##  8     0   1.06      1.20    0.240         29   -0.748     2.87  One S…
    ##  9     0  -0.704    -0.731   0.470         29   -2.67      1.27  One S…
    ## 10     0   0.819     1.37    0.181         29   -0.404     2.04  One S…
    ## # … with 34,990 more rows, and 2 more variables: alternative <chr>,
    ## #   pvalue <dbl>
